{
  "_embedded": {
    "meshEventLogs": [
      {
        "kind": "meshEventLog",
        "apiVersion": "v1-preview",
        "metadata": {
          "uuid": "9bee43e3-74b6-4dbc-9abb-5e946c79865f",
          "createdAt": "2025-12-10T11:06:49.999377Z"
        },
        "spec": {
          "title": "Building Block Created",
          "eventType": "Created",
          "description": "Building Block smoke-test-2025-12-10T11:06:49Z | 8f0bab75-3afe-44e9-92ab-8af9501b3cc3 was created at Workspace 'smoke-test', Project: 'smoke-dev', Platform: 'aks', Location: 'eu-de-central'",
          "workspaceRef": {
            "name": "smoke-test",
            "kind": "meshWorkspace"
          },
          "content": {
            "Building Block Name": "smoke-test-2025-12-10T11:06:49Z",
            "Building Block UUID": "8f0bab75-3afe-44e9-92ab-8af9501b3cc3"
          },
          "author": {
            "authorType": "ApiKey",
            "identifier": "f371fda8-3ce1-440c-ac85-c6320d7b47e2"
          }
        },
        "_links": {
          "self": {
            "href": "https://federation.dev.meshcloud.io/api/meshobjects/mesheventlogs/9bee43e3-74b6-4dbc-9abb-5e946c79865f"
          }
        }
      },
      {
        "kind": "meshEventLog",
        "apiVersion": "v1-preview",
        "metadata": {
          "uuid": "6595d819-205b-4ea2-9757-d36f65b800da",
          "createdAt": "2025-12-10T11:08:22.191954Z"
        },
        "spec": {
          "title": "Building Block Run Requested",
          "eventType": "Requested",
          "description": "Building Block Run was requested for Building Block smoke-test-2025-12-10T11:06:49Z | 8f0bab75-3afe-44e9-92ab-8af9501b3cc3 at Workspace 'smoke-test', Project: 'smoke-dev', Platform: 'aks', Location: 'eu-de-central'",
          "workspaceRef": {
            "name": "smoke-test",
            "kind": "meshWorkspace"
          },
          "content": {
            "Building Block Name": "smoke-test-2025-12-10T11:06:49Z",
            "Building Block UUID": "8f0bab75-3afe-44e9-92ab-8af9501b3cc3",
            "Reason": "The author has requested the Building Block to be purged, resulting in an automatic run request."
          },
          "author": {
            "authorType": "ApiKey",
            "identifier": "f371fda8-3ce1-440c-ac85-c6320d7b47e2"
          }
        },
        "_links": {
          "self": {
            "href": "https://federation.dev.meshcloud.io/api/meshobjects/mesheventlogs/6595d819-205b-4ea2-9757-d36f65b800da"
          }
        }
      }
    ]
  },
  "_links": {
    "first": {
      "href": "https://federation.dev.meshcloud.io/api/meshobjects/mesheventlogs?from=2025-12-10T10%3A45%3A21Z&until=2025-12-11T10%3A45%3A21Z&page=0&size=2&sort=id,asc"
    },
    "self": {
      "href": "https://federation.dev.meshcloud.io/api/meshobjects/mesheventlogs?from=2025-12-10T10%3A45%3A21Z&until=2025-12-11T10%3A45%3A21Z&size=2"
    },
    "next": {
      "href": "https://federation.dev.meshcloud.io/api/meshobjects/mesheventlogs?from=2025-12-10T10%3A45%3A21Z&until=2025-12-11T10%3A45%3A21Z&page=1&size=2&sort=id,asc"
    },
    "last": {
      "href": "https://federation.dev.meshcloud.io/api/meshobjects/mesheventlogs?from=2025-12-10T10%3A45%3A21Z&until=2025-12-11T10%3A45%3A21Z&page=202&size=2&sort=id,asc"
    }
  },
  "page": {
    "size": 2,
    "totalElements": 405,
    "totalPages": 203,
    "number": 0
  }
}
